{
	"info": {
		"_postman_id": "e4ceefa9-f1ee-401f-95ee-41ea349ffb20",
		"name": "DB-Lab6-Hello",
		"schema": "https://schema.getpostman.com/json/collection/v2.1.0/collection.json"
	},
	"item": [
		{
			"name": "hello",
			"request": {
				"method": "GET",
				"header": [],
				"url": {
					"raw": "localhost:3000/nice",
					"host": [
						"localhost"
					],
					"port": "3000",
					"path": [
						"nice"
					]
				}
			},
			"response": []
		},
		{
			"name": "welcomePost",
			"request": {
				"method": "POST",
				"header": [],
				"body": {
					"mode": "raw",
					"raw": "{\n    \"name\" : \"mehrab\",\n    \"year\" : 1998\n}",
					"options": {
						"raw": {
							"language": "json"
						}
					}
				},
				"url": {
					"raw": "localhost:3000/hello/welcome",
					"host": [
						"localhost"
					],
					"port": "3000",
					"path": [
						"hello",
						"welcome"
					]
				}
			},
			"response": []
		},
		{
			"name": "welcomeGet",
			"request": {
				"method": "GET",
				"header": [],
				"url": {
					"raw": "localhost:3000/hello/welcome?name=karim&year=1960",
					"host": [
						"localhost"
					],
					"port": "3000",
					"path": [
						"hello",
						"welcome"
					],
					"query": [
						{
							"key": "name",
							"value": "karim"
						},
						{
							"key": "year",
							"value": "1960"
						}
					]
				}
			},
			"response": []
		},
		{
			"name": "insertUser",
			"request": {
				"method": "POST",
				"header": [],
				"body": {
					"mode": "raw",
					"raw": "{\n    \"name\" : \"karim\",\n    \"books\" : [\n        1, 2\n    ]\n}",
					"options": {
						"raw": {
							"language": "json"
						}
					}
				},
				"url": {
					"raw": "localhost:3000/users/post",
					"host": [
						"localhost"
					],
					"port": "3000",
					"path": [
						"users",
						"post"
					]
				}
			},
			"response": []
		},
		{
			"name": "insertBook",
			"request": {
				"method": "POST",
				"header": [],
				"body": {
					"mode": "raw",
					"raw": "{\n    \"name\" : \"requiem for a dream\",\n    \"userID\" : \"2\",\n    \"genreIDs\" : [2]\n}",
					"options": {
						"raw": {
							"language": "json"
						}
					}
				},
				"url": {
					"raw": "http://localhost:3000/books/post",
					"protocol": "http",
					"host": [
						"localhost"
					],
					"port": "3000",
					"path": [
						"books",
						"post"
					]
				}
			},
			"response": []
		},
		{
			"name": "insertGenre",
			"request": {
				"method": "POST",
				"header": [],
				"body": {
					"mode": "raw",
					"raw": "{\n    \"type\" : \"Fantasy\"\n}",
					"options": {
						"raw": {
							"language": "json"
						}
					}
				},
				"url": {
					"raw": "http://localhost:3000/genre/post",
					"protocol": "http",
					"host": [
						"localhost"
					],
					"port": "3000",
					"path": [
						"genre",
						"post"
					]
				}
			},
			"response": []
		},
		{
			"name": "booksOfUsers",
			"protocolProfileBehavior": {
				"disableBodyPruning": true
			},
			"request": {
				"method": "GET",
				"header": [],
				"body": {
					"mode": "raw",
					"raw": "{\n    \"userID\" : 2\n}",
					"options": {
						"raw": {
							"language": "json"
						}
					}
				},
				"url": {
					"raw": "http://localhost:3000/users/books",
					"protocol": "http",
					"host": [
						"localhost"
					],
					"port": "3000",
					"path": [
						"users",
						"books"
					]
				}
			},
			"response": []
		},
		{
			"name": "allBooks",
			"request": {
				"method": "GET",
				"header": [],
				"url": {
					"raw": "http://localhost:3000/books",
					"protocol": "http",
					"host": [
						"localhost"
					],
					"port": "3000",
					"path": [
						"books"
					]
				}
			},
			"response": []
		},
		{
			"name": "allGenres",
			"request": {
				"method": "GET",
				"header": [],
				"url": {
					"raw": "http://localhost:3000/genre",
					"protocol": "http",
					"host": [
						"localhost"
					],
					"port": "3000",
					"path": [
						"genre"
					]
				}
			},
			"response": []
		},
		{
			"name": "allUsers",
			"request": {
				"method": "GET",
				"header": [],
				"url": {
					"raw": "localhost:3000/users",
					"host": [
						"localhost"
					],
					"port": "3000",
					"path": [
						"users"
					]
				}
			},
			"response": []
		},
		{
			"name": "editBook",
			"request": {
				"method": "PUT",
				"header": [],
				"body": {
					"mode": "raw",
					"raw": "{\n    \"name\" : \"romeo and juliet version 2\",\n    \"userID\" : 2,\n    \"genreIDs\" : [ 1]\n}",
					"options": {
						"raw": {
							"language": "json"
						}
					}
				},
				"url": {
					"raw": "http://localhost:3000/books/",
					"protocol": "http",
					"host": [
						"localhost"
					],
					"port": "3000",
					"path": [
						"books",
						""
					]
				}
			},
			"response": []
		},
		{
			"name": "removeBook",
			"request": {
				"method": "DELETE",
				"header": [],
				"body": {
					"mode": "raw",
					"raw": "",
					"options": {
						"raw": {
							"language": "json"
						}
					}
				},
				"url": {
					"raw": "http://localhost:3000/books/2",
					"protocol": "http",
					"host": [
						"localhost"
					],
					"port": "3000",
					"path": [
						"books",
						"2"
					]
				}
			},
			"response": []
		},
		{
			"name": "profile",
			"request": {
				"method": "GET",
				"header": [],
				"url": {
					"raw": ""
				}
			},
			"response": []
		},
		{
			"name": "authLogin",
			"request": {
				"method": "GET",
				"header": [],
				"url": {
					"raw": ""
				}
			},
			"response": []
		},
		{
			"name": "insertTag",
			"request": {
				"method": "POST",
				"header": [
					{
						"key": "Content-Type",
						"value": "application/json",
						"type": "text"
					},
					{
						"key": "Authorization",
						"value": "Bearer eyJhbGciOiJIUzI1NiIsInR5cCI6IkpXVCJ9.eyJ1c2VybmFtZSI6Im1laHJhYiIsInN1YiI6MiwiaWF0IjoxNjA4MzM4NDE0LCJleHAiOjE2MDgzMzkwMTR9.teXDafRurt62GdPauRTx9nkvSmRovTdH2zE3QPODROE",
						"type": "text"
					}
				],
				"body": {
					"mode": "raw",
					"raw": "{\n    \"name\" : \"nice tag\"\n}",
					"options": {
						"raw": {
							"language": "json"
						}
					}
				},
				"url": {
					"raw": "localhost:3000/todo/postTag",
					"host": [
						"localhost"
					],
					"port": "3000",
					"path": [
						"todo",
						"postTag"
					]
				}
			},
			"response": []
		},
		{
			"name": "insertCategory",
			"request": {
				"method": "POST",
				"header": [
					{
						"key": "Content-Type",
						"value": "application/json",
						"type": "text"
					},
					{
						"key": "Authorization",
						"value": "Bearer eyJhbGciOiJIUzI1NiIsInR5cCI6IkpXVCJ9.eyJ1c2VybmFtZSI6Im1laHJhYiIsInN1YiI6MiwiaWF0IjoxNjA4MzM4NDE0LCJleHAiOjE2MDgzMzkwMTR9.teXDafRurt62GdPauRTx9nkvSmRovTdH2zE3QPODROE",
						"type": "text"
					}
				],
				"body": {
					"mode": "raw",
					"raw": "{\n    \"name\" : \"categ 1\"\n}"
				},
				"url": {
					"raw": "localhost:3000/todo/postCategory",
					"host": [
						"localhost"
					],
					"port": "3000",
					"path": [
						"todo",
						"postCategory"
					]
				}
			},
			"response": []
		},
		{
			"name": "insertItem",
			"request": {
				"method": "POST",
				"header": [
					{
						"key": "Authorization",
						"value": "Bearer eyJhbGciOiJIUzI1NiIsInR5cCI6IkpXVCJ9.eyJ1c2VybmFtZSI6Im1laHJhYiIsInN1YiI6MiwiaWF0IjoxNjA4MzM4NDE0LCJleHAiOjE2MDgzMzkwMTR9.teXDafRurt62GdPauRTx9nkvSmRovTdH2zE3QPODROE",
						"type": "text"
					}
				],
				"body": {
					"mode": "raw",
					"raw": "{\n    \"workDesc\" : \"handle frontend\"\n}",
					"options": {
						"raw": {
							"language": "json"
						}
					}
				},
				"url": {
					"raw": "localhost:3000/todo/postItem",
					"host": [
						"localhost"
					],
					"port": "3000",
					"path": [
						"todo",
						"postItem"
					]
				}
			},
			"response": []
		},
		{
			"name": "insertTask",
			"request": {
				"method": "POST",
				"header": [
					{
						"key": "Content-Type",
						"value": "application/json",
						"type": "text"
					},
					{
						"key": "Authorization",
						"value": "Bearer eyJhbGciOiJIUzI1NiIsInR5cCI6IkpXVCJ9.eyJ1c2VybmFtZSI6Im1laHJhYiIsInN1YiI6MiwiaWF0IjoxNjA4MzM5MDc0LCJleHAiOjE2MDgzMzk2NzR9.-6YI2q3afLPS1z_C50fotkbTBvqu3Y-hKf35QP2qMmU",
						"type": "text"
					}
				],
				"body": {
					"mode": "raw",
					"raw": "{\n    \"name\" : \"deploy project db lab6\",\n    \"userID\" : 2,\n    \"categoryID\" : 1,\n    \"tagIDs\" : [1],\n    \"itemIDs\" : [3, 2],\n    \"description\" : \"good luck with this project!\"\n}"
				},
				"url": {
					"raw": "localhost:3000/todo/postTask",
					"host": [
						"localhost"
					],
					"port": "3000",
					"path": [
						"todo",
						"postTask"
					]
				}
			},
			"response": []
		},
		{
			"name": "editTask",
			"request": {
				"method": "GET",
				"header": [],
				"url": {
					"raw": ""
				}
			},
			"response": []
		},
		{
			"name": "deleteTask",
			"request": {
				"method": "GET",
				"header": [],
				"url": {
					"raw": ""
				}
			},
			"response": []
		},
		{
			"name": "deleteItem",
			"request": {
				"method": "GET",
				"header": [],
				"url": {
					"raw": ""
				}
			},
			"response": []
		},
		{
			"name": "getTasks",
			"request": {
				"method": "GET",
				"header": [
					{
						"key": "Authorization",
						"value": "Bearer eyJhbGciOiJIUzI1NiIsInR5cCI6IkpXVCJ9.eyJ1c2VybmFtZSI6Im1laHJhYiIsInN1YiI6MSwiaWF0IjoxNjA4MzY0MDI4LCJleHAiOjE2MDgzNjQ2Mjh9.T4fbVGuY9kuxlhEGB4upbOgnqpYaTCF83N5bG2PpvQs",
						"type": "text"
					}
				],
				"url": {
					"raw": "localhost:3000/todo/tasks",
					"host": [
						"localhost"
					],
					"port": "3000",
					"path": [
						"todo",
						"tasks"
					]
				}
			},
			"response": []
		}
	]
}